<svg width="16" height="16" viewBox="0 0 16 16" fill="none" xmlns="http://www.w3.org/2000/svg">
<rect width="20.57" height="2.057" rx="1.0285" transform="matrix(0.707115 -0.707099 0.707115 0.707099 0 14.5459)" fill="#373D42"/>
<path d="M0.727285 0.727236C1.12894 0.325592 1.78014 0.325592 2.18179 0.727236L15.2726 13.8178C15.6743 14.2194 15.6743 14.8707 15.2726 15.2723C14.871 15.674 14.2198 15.674 13.8181 15.2723L0.727285 2.18177C0.325619 1.78012 0.325619 1.12889 0.727285 0.727236Z" fill="#373D42"/>
</svg>
