<svg width="14" height="20" viewBox="0 0 14 20" fill="none" xmlns="http://www.w3.org/2000/svg">
<path d="M9.625 14.8745H4.375C3.892 14.8745 3.5 14.5246 3.5 14.0916C3.5 13.6587 3.892 13.3088 4.375 13.3088H9.625C10.1089 13.3088 10.5 13.6587 10.5 14.0916C10.5 14.5246 10.1089 14.8745 9.625 14.8745ZM3.48775 14.0583C3.48775 14.0583 3.44575 13.1459 0.993125 9.47898L0.942375 9.39051C0.3255 8.4362 0 7.3574 0 6.26295C0 2.80972 3.14038 0 7 0C10.8596 0 14 2.80972 14 6.26295C14 7.35662 13.6745 8.43541 13.0585 9.38895L13.0069 9.47898C10.5534 13.1467 10.5122 14.0591 10.5122 14.0591L3.48775 14.0583ZM8.76312 14.0317C8.76312 14.0317 8.93287 12.5298 11.4485 8.7603L11.4984 8.67419C11.9901 7.94142 12.25 7.10767 12.25 6.26295C12.25 3.67244 9.89538 1.56574 7 1.56574C4.10462 1.56574 1.75 3.67244 1.75 6.26295C1.75 7.10767 2.00988 7.94142 2.50163 8.67419L2.55062 8.75874C5.06625 12.5283 5.23688 14.0302 5.23688 14.0302L8.76312 14.0317ZM10.5 7.04582C10.0188 7.04582 9.625 6.69353 9.625 6.26295C9.625 5.60534 9.3275 4.9947 8.785 4.54064C8.61875 4.39972 8.51287 4.21184 8.51287 4.00046C8.50412 3.78909 8.58288 3.59337 8.74125 3.43679C9.05625 3.13148 9.6425 3.11582 9.98375 3.39765C10.8675 4.13355 11.375 5.18259 11.375 6.26295C11.375 6.69353 10.9812 7.04582 10.5 7.04582ZM7 3.91435C6.51875 3.91435 6.125 3.56205 6.125 3.13148C6.125 2.7009 6.51875 2.34861 7 2.34861C7.48125 2.34861 7.875 2.7009 7.875 3.13148C7.875 3.56205 7.48125 3.91435 7 3.91435Z" fill="#ABB4B9"/>
<rect x="3.81836" y="15.875" width="6.36364" height="1.75" rx="0.875" fill="#ABB4B9"/>
<rect x="5.09082" y="18.2084" width="3.81818" height="1.75" rx="0.875" fill="#ABB4B9"/>
</svg>
