<svg width="13" height="13" viewBox="0 0 13 13" fill="none" xmlns="http://www.w3.org/2000/svg">
<path d="M2.00022 6.53552L6.53576 10.0711L11.0713 6.53552" stroke="#ABB4B9" stroke-width="1.6" stroke-linecap="round" stroke-linejoin="round"/>
</svg>
