<?xml version="1.0" encoding="utf-8"?>
<!-- Generator: Adobe Illustrator 22.1.0, SVG Export Plug-In . SVG Version: 6.00 Build 0)  -->
<svg version="1.1" id="Layer_1" xmlns="http://www.w3.org/2000/svg" xmlns:xlink="http://www.w3.org/1999/xlink" x="0px" y="0px"
	 viewBox="0 0 70 70" style="enable-background:new 0 0 70 70;" xml:space="preserve">
<style type="text/css">
	.st0{fill:#FFFFFF;}
	.st1{opacity:0.32;fill:#FFFFFF;}
</style>
<g>
	<path class="st0" d="M35,70C15.7,70,0,54.3,0,35C0,15.7,15.7,0,35,0s35,15.7,35,35C70,54.3,54.3,70,35,70z M35,2
		C16.8,2,2,16.8,2,35c0,18.2,14.8,33,33,33s33-14.8,33-33C68,16.8,53.2,2,35,2z"/>
</g>
<circle class="st1" cx="35" cy="35" r="34"/>
<path class="st0" d="M44.8,34.1c0.7,0.4,0.7,1.3,0,1.7l-13.9,8c-0.7,0.4-1.5-0.1-1.5-0.9V27c0-0.8,0.8-1.3,1.5-0.9L44.8,34.1z"/>
</svg>
